Data Wrangling
…
new_df_4

## # A tibble: 22 x 3
##    subject mean_cong_acc mean_cong_react
##    <fct>           <dbl>           <dbl>
##  1 1.txt           0.917       2.73e-321
##  2 10.txt          0.948       5.32e-321
##  3 11.txt          0.938       3.50e-321
##  4 12.txt          0.927       3.08e-321
##  5 13.txt          0.896       2.70e-321
##  6 14.txt          0.969       3.56e-321
##  7 15.txt          0.990       3.13e-321
##  8 16.txt          0.958       2.84e-321
##  9 17.txt          0.969       3.13e-321
## 10 18.txt          1           3.97e-321
## # … with 12 more rows
…
Get the individual subject mean reaction times for correct congruent and incongruent trials.

library(dplyr)

new_df_2$congruency <- as.factor(new_df_2$congruency)

new_df_6 <- new_df_2 %>%
  filter(accuracy == TRUE) %>%
  group_by(subject, congruency) %>%
  dplyr::summarise(mean_reaction = mean(reaction_time))

new_df_6

## # A tibble: 44 x 3
## # Groups:   subject [22]
##    subject congruency mean_reaction
##    <fct>   <fct>              <dbl>
##  1 1.txt   C              2.76e-321
##  2 1.txt   I              2.73e-321
##  3 10.txt  C              5.37e-321
##  4 10.txt  I              5.78e-321
##  5 11.txt  C              3.53e-321
##  6 11.txt  I              4.22e-321
##  7 12.txt  C              3.03e-321
##  8 12.txt  I              2.81e-321
##  9 13.txt  C              2.72e-321
## 10 13.txt  I              3.15e-321
## # … with 34 more rows
…
